2021/08/02 13:19:59 INFO  : fact_jato_apr.csv: Updated modification time in destination
2021/08/02 13:19:59 INFO  : fact_jato_trim.csv: Updated modification time in destination
2021/08/02 13:19:59 INFO  : dim_dlr_master.csv: Updated modification time in destination
2021/08/02 13:19:59 INFO  : dim_date_shift.csv: Updated modification time in destination
2021/08/02 13:19:59 INFO  : dim_re_stores.csv: Updated modification time in destination
2021/08/02 13:19:59 INFO  : fact_jato_lease.csv: Updated modification time in destination
2021/08/02 13:19:59 INFO  : fact_soa_share.csv: Updated modification time in destination
2021/08/02 13:19:59 INFO  : dim_mkt_master.csv: Copied (replaced existing)
2021/08/02 13:19:59 INFO  : dim_date_master.csv: Copied (replaced existing)
2021/08/02 13:20:01 INFO  : fact_mz_inventory.csv: Copied (replaced existing)
2021/08/02 13:20:02 INFO  : fact_mz_dol.csv: Copied (replaced existing)
2021/08/02 13:20:02 INFO  : fact_dcs_sales.csv: Copied (replaced existing)
2021/08/02 13:20:03 INFO  : fact_eng_visits.csv: Copied (replaced existing)
2021/08/02 13:20:04 INFO  : fact_mz_sales.csv: Copied (replaced existing)
2021/08/02 13:20:04 INFO  : fact_sls_objectives.csv: Copied (replaced existing)
2021/08/02 13:20:05 INFO  : dim_parent_dlr.csv: Copied (replaced existing)
2021/08/02 13:20:05 INFO  : fact_mz_sales_actual.csv: Copied (replaced existing)
2021/08/02 13:20:16 INFO  : fact_vdp_views.csv: Copied (replaced existing)
2021/08/02 13:20:16 INFO  : 
Transferred:   	  195.147M / 195.147 MBytes, 100%, 10.997 MBytes/s, ETA 0s
Checks:                18 / 18, 100%
Transferred:           11 / 11, 100%
Elapsed time:        20.4s

